# compile verilog/system verilog design source files
verilog xil_defaultlib  --include "../../../../lab_4.srcs/sources_1/ip/clk_wiz_0" \
"../../../../lab_4.srcs/sources_1/ip/clk_wiz_0/clk_wiz_0_clk_wiz.v" \
"../../../../lab_4.srcs/sources_1/ip/clk_wiz_0/clk_wiz_0.v" \
"../../../../fileImports/audio_init.v" \

# compile glbl module
verilog xil_defaultlib "glbl.v"

# Do not sort compile order
nosort
