INIT_00 => X"8BC28AF98A31896988A087D8870F8647857E84B583EC8323825A819180C88000",
INIT_01 => X"9830976A96A595DF95199452938C92C591FE913790708FA98EE18E198D528C8A",
INIT_02 => X"A462A3A2A2E0A21FA15DA09B9FD89F169E529D8F9CCB9C079B439A7F99BA98F5",
INIT_03 => X"B03BAF81AEC6AE0BAD4FAC93ABD6AB19AA5CA99EA8E0A821A762A6A3A5E3A523",
INIT_04 => X"BB9DBAEBBA39B985B8D2B81DB768B6B3B5FDB547B490B3D8B320B268B1AFB0F5",
INIT_05 => X"C66DC5C5C51CC472C3C8C31DC272C1C6C119C06CBFBEBF0FBE60BDB0BD00BC4F",
INIT_06 => X"D08FCFF2CF55CEB7CE18CD78CCD8CC37CB95CAF3CA4FC9ABC907C861C7BBC714",
INIT_07 => X"D9EAD95BD8CAD839D7A7D714D681D5ECD557D4C1D42AD392D2F9D260D1C5D12A",
INIT_08 => X"E268E1E7E165E0E2E05FDFDADF54DECEDE46DDBEDD35DCAADC1FDB93DB07DA79",
INIT_09 => X"E9F4E983E910E89DE829E7B3E73DE6C6E64EE5D4E55AE4DFE463E3E5E367E2E8",
INIT_0A => X"F07BF01AEFB9EF56EEF2EE8DEE28EDC1ED59ECF0EC86EC1BEBAFEB41EAD3EA64",
INIT_0B => X"F5ECF59DF54EF4FDF4AAF457F403F3ADF357F2FFF2A6F24CF1F1F195F138F0DA",
INIT_0C => X"FA3BF9FFF9C2F983F943F902F8C0F87DF839F7F3F7ADF765F71CF6D1F686F63A",
INIT_0D => X"FD5DFD34FD0AFCDEFCB2FC84FC55FC24FBF3FBC0FB8CFB57FB20FAE9FAB0FA76",
INIT_0E => X"FF4BFF35FF1EFF06FEEDFED2FEB6FE99FE7BFE5CFE3BFE19FDF6FDD2FDACFD85",
INIT_0F => X"FFFFFFFDFFF9FFF5FFEFFFE8FFE0FFD7FFCCFFC0FFB3FFA5FF95FF85FF73FF5F",
INIT_10 => X"FF77FF89FF99FFA9FFB7FFC3FFCFFFD9FFE2FFEAFFF1FFF6FFFAFFFDFFFFFFFF",
INIT_11 => X"FDB6FDDBFDFFFE22FE44FE64FE83FEA1FEBEFED9FEF3FF0CFF24FF3BFF50FF64",
INIT_12 => X"FABFFAF7FB2FFB65FB99FBCDFC00FC31FC61FC90FCBDFCEAFD15FD3FFD68FD90",
INIT_13 => X"F69AF6E5F72FF777F7BFF805F84BF88FF8D2F913F954F993F9D2FA0FFA4BFA85",
INIT_14 => X"F150F1ADF209F264F2BDF316F36DF3C4F419F46DF4C0F512F562F5B2F600F64E",
INIT_15 => X"EAF0EB5EEBCBEC36ECA1ED0BED74EDDBEE42EEA8EF0CEF6FEFD2F033F093F0F2",
INIT_16 => X"E388E406E483E4FFE57AE5F4E66DE6E5E75CE7D2E847E8BBE92EE9A0EA11EA81",
INIT_17 => X"DB2BDBB8DC43DCCEDD58DDE1DE69DEF1DF77DFFCE081E104E187E209E289E309",
INIT_18 => X"D1EDD287D321D3B9D451D4E7D57DD613D6A7D73AD7CDD85FD8F0D980DA0FDA9D",
INIT_19 => X"C7E6C88CC931C9D6CA79CB1DCBBFCC61CD01CDA2CE41CEE0CF7ED01BD0B7D153",
INIT_1A => X"BD2EBDDEBE8DBF3CBFEBC099C146C1F2C29EC34AC3F4C49EC548C5F0C698C73F",
INIT_1B => X"B1DEB297B350B408B4BFB576B62CB6E2B797B84CB900B9B4BA67BB19BBCBBC7D",
INIT_1C => X"A615A6D4A793A852A911A9CFAA8DAB4AAC07ACC4AD80AE3BAEF6AFB1B06BB125",
INIT_1D => X"99ED9AB19B769C3A9CFE9DC19E859F48A00AA0CDA18FA251A312A3D3A494A554",
INIT_1E => X"8D858E4D8F158FDC90A3916B923292F893BF9485954C961296D8979D98639928",
INIT_1F => X"80FC81C5828E8357842084E985B2867A8743880C88D4899D8A658B2D8BF58CBD",
INIT_20 => X"74717539760176CA7792785B792379EC7AB57B7E7C477D107DD87EA17F6A8033",
INIT_21 => X"680268C8698D6A536B196BE06CA66D6D6E346EFB6FC2708A7151721972E173A9",
INIT_22 => X"5BCE5C8F5D505E125ED45F966059611C61DF62A26366642A64EE65B36678673D",
INIT_23 => X"4FF450AE5169522452E0539D5459551655D456925750580F58CE598E5A4D5B0E",
INIT_24 => X"448F454245F446A8475C481048C5497B4A314AE74B9F4C564D0E4DC74E804F3A",
INIT_25 => X"39BD3A663B0F3BB83C633D0E3DB93E653F123FC0406E411D41CC427C432C43DE",
INIT_26 => X"2F98303530D33171321032B0335033F23494353635DA367E372337C8386F3916",
INIT_27 => X"263A26C9275A27EB287D291129A42A392ACF2B652BFC2C942D2D2DC72E612EFD",
INIT_28 => X"1DB81E391EBB1F3E1FC2204720CD215421DC226422EE237824042490251D25AB",
INIT_29 => X"1628169A170C178017F4186A18E1195819D11A4A1AC51B401BBD1C3A1CB81D38",
INIT_2A => X"1F9D1FFE106010C31127118C11F2125912C1132A13951400146C14DA154815B8",
INIT_2B => X"1A271A761AC61B181B6A1BBD1C121C681CBF1D171D701DCA1E251E821EDF1F3E",
INIT_2C => X"15D31610164D168C16CC170E1750179317D8181E186518AD18F61941198D19D9",
INIT_2D => X"12AC12D61300132C1359138713B713E81419144D148114B614ED1525155E1598",
INIT_2E => X"11BA11D011E711FF111911341150116D118C11AC11CD11EF12121237125D1284",
INIT_2F => X"111111131117111B111111191121112B11361142114F115E116E117F119111A5",
INIT_30 => X"118311721161115311451138112D1123111A1113111D11181114111111111111",
INIT_31 => X"123F121A11F711D411B3119311741156113A111F110511EC11D511BE11A91196",
INIT_32 => X"153114F914C2148C1458142513F213C1139213631336130A12DF12B5128D1265",
INIT_33 => X"1951190718BD1875182D17E717A2175F171C16DA169A165B161D15E015A5156A",
INIT_34 => X"1E961E391DDE1D831D2A1CD21C7B1C251BD01B7C1B291AD81A881A3819EA199D",
INIT_35 => X"14F21484141813AC134212D81270120811A2113D10D8107510131FB21F521EF4",
INIT_36 => X"1C551BD81B5B1AE01A6519EB197218FB1884180E1799172516B3164115D01561",
INIT_37 => X"24AE24222397230C228221F9217220EB20651FDF1F5B1ED81E551DD41D541CD4",
INIT_38 => X"2DE82D4F2CB62C1D2B862AEF2A5A29C52931289D280B277926E9265925CA253C",
INIT_39 => X"37EC374736A235FD355A34B73415337332D33233319430F530572FBA2F1E2E83",
INIT_3A => X"42A241F2414340943FE53F383E8B3DDE3D333C883BDD3B333A8A39E2393A3893",
INIT_3B => X"4DEF4D364C7E4BC64B0F4A5849A248EC4837478346CF461B456844B644044353",
INIT_3C => X"59B758F75838577956BB55FD553F548253C55309524D519150D6501C4F624EA8",
INIT_3D => X"65DD65186454639062CC6209614660835FC05EFE5E3C5D7A5CB95BF85B375A77",
INIT_3E => X"7244717C70B46FED6F266E5F6D986CD16C0A6B446A7E69B868F2682C676766A2",
INIT_3F => X"7ECC7E037D3A7C717BA97AE07A17794E788677BD76F5762C7564749C73D4730C")