# compile vhdl design source files
vhdl xil_defaultlib  \
"../../../../../lab1/lab1.srcs/sources_1/new/col_counter.vhdl" \
"../../../../../lab1/lab1.srcs/sources_1/new/dvid.vhdl" \
"../../../../../lab1/lab1.srcs/sources_1/new/lab1.vhdl" \
"../../../../../lab1/lab1.srcs/sources_1/new/row_counter.vhdl" \
"../../../../../lab1/lab1.srcs/sources_1/new/scopeFace.vhdl" \
"../../../../../lab1/lab1.srcs/sources_1/new/tdms.vhdl" \
"../../../../../lab1/lab1.srcs/sources_1/new/vga.vhdl" \
"../../../../../lab1/lab1.srcs/sources_1/new/video.vhdl" \
"../../../../../lab1/lab1.srcs/sources_1/new/vga_tb.vhdl" \

# Do not sort compile order
nosort
